89331 559486 470
97045 449333 449
487580 8950 449
415474 869414 525
581749 679516 509
955266 508927 525
45702 387432 443
819845 957841 525
466106 42425 449
793566 341930 509
442278 866281 525
386148 755629 509
263337 373546 441
97238 751307 509
424110 821980 509
943851 718048 525
129742 182319 383
280838 969388 525
910099 357360 525
630024 812396 504
348567 416498 449
469696 799764 509
638284 91162 509
18045 449068 449
315989 587654 470
160581 244996 443
880400 579418 525
217886 47381 386
685047 830057 504
463817 423734 444
10396 729661 509
865038 787255 525
160402 612932 470
894386 214942 525
308714 141207 443
621254 638332 509
911899 604263 525
580442 718634 509
721915 557318 509
50382 216485 386
305322 840656 525
201032 711940 509
368462 991924 525
918081 195858 525
272696 842467 525
821818 143564 509
35429 856467 525
702541 708152 504
301729 643632 509
276254 528032 470
46726 358176 443
873200 852906 432
516323 170481 470
193044 675349 509
322680 289122 384
992700 358610 525
479005 996555 525
467117 287996 449
356929 402857 436
488659 123958 449
543312 723466 509
34862 718176 509
293870 534481 470
664746 497205 509
218977 955367 525
336077 68804 443
391371 789502 509
817034 27785 509
620436 306307 470
904306 227368 525
948966 47200 525
484234 452357 444
565458 747883 509
619511 426754 470
908176 860654 445
734422 798870 468
883043 397331 525
368552 264839 441
257051 782636 509
901995 608900 525
905972 635997 525
979652 299425 525
861468 584551 525
979095 750191 525
820562 234833 509
850169 186615 525
826282 292980 509
706557 849491 525
569133 202084 470
705323 120490 509
768989 753207 468
181775 354310 443
657429 947123 525
245421 585300 470
926799 749592 525
826770 657015 504
809280 576198 509
158853 421769 449
616862 131788 470
523997 422127 470
